Homework 4 - Hodge Podge
…
Parse the returned information into a data frame with the article information in it.

parsed <- jsonlite::fromJSON(rawToChar(site_raw_data$content))

articles <- as.tibble(parsed$articles) |>
  filter(title != "[Removed]")

Warning: `as.tibble()` was deprecated in tibble 2.0.0.
ℹ Please use `as_tibble()` instead.
ℹ The signature and semantics have changed, see `?as_tibble`.

articles

# A tibble: 100 × 8
   source$id $name author title description url   urlToImage publishedAt content
   <chr>     <chr> <chr>  <chr> <chr>       <chr> <chr>      <chr>       <chr>  
 1 <NA>      NPR   Becky… Cait… "Caitlin C… http… https://m… 2024-06-09… "Caitl…
 2 <NA>      NPR   Brian… WNBA… "The India… http… https://n… 2024-06-09… "One o…
 3 <NA>      NPR   Becky… The … "With reco… http… https://n… 2024-06-11… "More …
 4 <NA>      NPR   Danie… Satu… "NPR's Dan… http… https://m… 2024-06-15… "NPR's…
 5 <NA>      NPR   Emma … WNBA… "The \"Dou… http… https://n… 2024-06-21… "Chica…
 6 business… Busi… Joi-M… Insi… "In Saturd… http… https://i… 2024-06-22… "Getty…
 7 business… Busi… Ashle… Athl… "Athlete m… http… https://i… 2024-06-17… "Pete …
 8 business… Busi… Dan D… 'Qui… "'Quiet va… http… https://i… 2024-06-20… "Tyler…
 9 usa-today USA … Dana … Cait… "Eli wants… http… https://s… 2024-06-13… "Eli w…
10 time      Time  Sean … Let … "Caitlin C… http… https://a… 2024-06-10… "Caitl…
# ℹ 90 more rows
…
  parsed <- jsonlite::fromJSON(rawToChar(sitestring$content))

  articles <- as.tibble(parsed$articles) |>
    select(title, author, description, everything()) |>
    filter(title != "[Removed]") |>
    arrange(desc(publishedAt))

  articles

}

getArticles("Apple", "2024-06-01", "b5c4c79305fb46db9e6212948cdf50e0")

# A tibble: 76 × 8
   title       author description source$id url   urlToImage publishedAt content
   <chr>       <chr>  <chr>       <chr>     <chr> <chr>      <chr>       <chr>  
 1 Typing to … Victo… "In iOS 18… the-verge http… https://c… 2024-06-22… "Typin…
 2 Bugatti’s … Jason… "Furiously… wired     http… https://m… 2024-06-20… "The r…
 3 EU delays … Kris … "European … <NA>      http… <NA>       2024-06-20… "If yo…
 4 Ex-OpenAI … Benj … "Safe Supe… ars-tech… http… https://c… 2024-06-20… "Enlar…
 5 Xbox Game … Quent… "CDKeys is… the-verge http… https://c… 2024-06-19… "Xbox …
 6 The Mornin… Mat S… "Nintendo … <NA>      http… <NA>       2024-06-19… "If yo…
 7 This unive… Quent… "Cantata h… the-verge http… https://c… 2024-06-18… "This …
 8 Nvidia ove… Richa… "Nvidia’s … the-verge http… https://c… 2024-06-18… "Nvidi…
 9 Beats Solo… Billy… "The idea … <NA>      http… <NA>       2024-06-18… "If yo…
10 Your Apple… Dua R… "WWDC 2024… <NA>      http… https://i… 2024-06-18… "WWDC …
# ℹ 66 more rows
# ℹ 1 more variable: source$name <chr>

We see that our inital code works, so let’s test it out two times using more complicated entries.

Searching for “Caitlin Clark”

getArticles("Caitlin Clark", "2024-06-10", "b5c4c79305fb46db9e6212948cdf50e0")

# A tibble: 96 × 8
   title       author description source$id url   urlToImage publishedAt content
   <chr>       <chr>  <chr>       <chr>     <chr> <chr>      <chr>       <chr>  
 1 Fever's Ca… "Jose… "Indiana F… bleacher… http… https://m… 2024-06-22… "Jeff …
 2 Insider To… "Joi-… "In Saturd… business… http… https://i… 2024-06-22… "Getty…
 3 Aces Top W… "Jay … "Record vi… <NA>      http… https://i… 2024-06-22… "In th…
 4 Caitlin Cl… "Andr… "The India… bleacher… http… https://m… 2024-06-22… "Adam …
 5 WNBA rooki… "Emma… "The \"Dou… <NA>      http… https://n… 2024-06-21… "Chica…
 6 Caitlin Cl… "Paul… "Indiana F… bleacher… http… https://m… 2024-06-21… "Emile…
 7 The Need F… "Bria… "Financial… <NA>      http… https://i… 2024-06-21… "In Ju…
 8 A'ja Wilso… "DOUG… "A’ja Wils… abc-news  http… https://i… 2024-06-21… "NEW Y…
 9 Wilson, Cl… "Mich… "The Aces'… espn      http… https://a… 2024-06-21… "The L…
10 A'ja Wilso… "Mike… "A'ja Wils… bleacher… http… https://m… 2024-06-21… "Ethan…
# ℹ 86 more rows
# ℹ 1 more variable: source$name <chr>

Searching for “West Virginial DMV”

getArticles("heat wave", "2024-06-01", "b5c4c79305fb46db9e6212948cdf50e0")

# A tibble: 100 × 8
   title       author description source$id url   urlToImage publishedAt content
   <chr>       <chr>  <chr>       <chr>     <chr> <chr>      <chr>       <chr>  
 1 Insider To… Joi-M… "In Saturd… business… http… https://i… 2024-06-22… "Getty…
 2 Florida re… Jenny… "Scientist… <NA>      http… https://n… 2024-06-22… "MIAMI…
 3 Why Extrem… Chant… "The “heat… time      http… https://a… 2024-06-21… "The h…
 4 U.S. Citie… Simmo… "The Natio… time      http… https://a… 2024-06-21… "High …
 5 In Convers… info@… "It's prob… <NA>      http… https://i… 2024-06-21… "It’s …
 6 5 Ways a P… Jon R… "These big… <NA>      http… https://w… 2024-06-21… "A wee…
 7 The myster… Caitl… "The unpre… <NA>      http… https://s… 2024-06-21… "This …
 8 Heat Dome … Chels… "With a he… <NA>      http… https://s… 2024-06-21… "CLIMA…
 9 Extreme te… Miche… "NPR's Mic… <NA>      http… https://m… 2024-06-21… "NPR's…
10 New rules … Aleja… "Californi… <NA>      http… https://n… 2024-06-21… "Calif…
# ℹ 90 more rows
# ℹ 1 more variable: source$name <chr>
