Homework 4 - Hodge Podge
…
parsed <- jsonlite::fromJSON(rawToChar(site_raw_data$content))

  articles <- as.tibble(parsed$articles) |>
    select(title, author, description, everything()) |>
    filter(title != "[Removed]") |>
    arrange(desc(publishedAt))

Warning: `as.tibble()` was deprecated in tibble 2.0.0.
ℹ Please use `as_tibble()` instead.
ℹ The signature and semantics have changed, see `?as_tibble`.

articles

# A tibble: 76 × 8
   title       author description source$id url   urlToImage publishedAt content
   <chr>       <chr>  <chr>       <chr>     <chr> <chr>      <chr>       <chr>  
 1 Typing to … Victo… "In iOS 18… the-verge http… https://c… 2024-06-22… "Typin…
 2 Bugatti’s … Jason… "Furiously… wired     http… https://m… 2024-06-20… "The r…
 3 EU delays … Kris … "European … <NA>      http… <NA>       2024-06-20… "If yo…
 4 Ex-OpenAI … Benj … "Safe Supe… ars-tech… http… https://c… 2024-06-20… "Enlar…
 5 Xbox Game … Quent… "CDKeys is… the-verge http… https://c… 2024-06-19… "Xbox …
 6 The Mornin… Mat S… "Nintendo … <NA>      http… <NA>       2024-06-19… "If yo…
 7 This unive… Quent… "Cantata h… the-verge http… https://c… 2024-06-18… "This …
 8 Nvidia ove… Richa… "Nvidia’s … the-verge http… https://c… 2024-06-18… "Nvidi…
 9 Beats Solo… Billy… "The idea … <NA>      http… <NA>       2024-06-18… "If yo…
10 Your Apple… Dua R… "WWDC 2024… <NA>      http… https://i… 2024-06-18… "WWDC …
# ℹ 66 more rows
# ℹ 1 more variable: source$name <chr>
…
  parsed <- jsonlite::fromJSON(rawToChar(sitestring$content))

  articles <- as.tibble(parsed$articles) |>
    select(title, author, description, everything()) |>
    filter(title != "[Removed]") |>
    arrange(desc(publishedAt))

  articles

}

getArticles("Apple", "2024-06-01", "b5c4c79305fb46db9e6212948cdf50e0")

# A tibble: 76 × 8
   title       author description source$id url   urlToImage publishedAt content
   <chr>       <chr>  <chr>       <chr>     <chr> <chr>      <chr>       <chr>  
 1 Typing to … Victo… "In iOS 18… the-verge http… https://c… 2024-06-22… "Typin…
 2 Bugatti’s … Jason… "Furiously… wired     http… https://m… 2024-06-20… "The r…
 3 EU delays … Kris … "European … <NA>      http… <NA>       2024-06-20… "If yo…
 4 Ex-OpenAI … Benj … "Safe Supe… ars-tech… http… https://c… 2024-06-20… "Enlar…
 5 Xbox Game … Quent… "CDKeys is… the-verge http… https://c… 2024-06-19… "Xbox …
 6 The Mornin… Mat S… "Nintendo … <NA>      http… <NA>       2024-06-19… "If yo…
 7 This unive… Quent… "Cantata h… the-verge http… https://c… 2024-06-18… "This …
 8 Nvidia ove… Richa… "Nvidia’s … the-verge http… https://c… 2024-06-18… "Nvidi…
 9 Beats Solo… Billy… "The idea … <NA>      http… <NA>       2024-06-18… "If yo…
10 Your Apple… Dua R… "WWDC 2024… <NA>      http… https://i… 2024-06-18… "WWDC …
# ℹ 66 more rows
# ℹ 1 more variable: source$name <chr>

We see that our initial code works, so let’s test it out two times using more complicated title/subject entries.

Searching for “Caitlin Clark”

getArticles("Caitlin Clark", "2024-06-10", "b5c4c79305fb46db9e6212948cdf50e0")

# A tibble: 97 × 8
   title       author description source$id url   urlToImage publishedAt content
   <chr>       <chr>  <chr>       <chr>     <chr> <chr>      <chr>       <chr>  
 1 Caitlin Cl…  <NA>  "Caitlin C… fox-spor… http… https://a… 2024-06-22… "The I…
 2 Fever's Ca… "Jose… "Indiana F… bleacher… http… https://m… 2024-06-22… "Jeff …
 3 Insider To… "Joi-… "In Saturd… business… http… https://i… 2024-06-22… "Getty…
 4 Aces Top W… "Jay … "Record vi… <NA>      http… https://i… 2024-06-22… "In th…
 5 Caitlin Cl… "Andr… "The India… bleacher… http… https://m… 2024-06-22… "Adam …
 6 WNBA rooki… "Emma… "The \"Dou… <NA>      http… https://n… 2024-06-21… "Chica…
 7 Caitlin Cl… "Paul… "Indiana F… bleacher… http… https://m… 2024-06-21… "Emile…
 8 The Need F… "Bria… "Financial… <NA>      http… https://i… 2024-06-21… "In Ju…
 9 A'ja Wilso… "DOUG… "A’ja Wils… abc-news  http… https://i… 2024-06-21… "NEW Y…
10 Wilson, Cl… "Mich… "The Aces'… espn      http… https://a… 2024-06-21… "The L…
# ℹ 87 more rows
# ℹ 1 more variable: source$name <chr>

Searching for “United States heat wave”

getArticles("United States heat wave", "2024-06-01", "b5c4c79305fb46db9e6212948cdf50e0")

# A tibble: 84 × 8
   title       author description source$id url   urlToImage publishedAt content
   <chr>       <chr>  <chr>       <chr>     <chr> <chr>      <chr>       <chr>  
 1 Helicopter… ED WH… "The gover… <NA>      http… https://b… 2024-06-22… "The g…
 2 Helicopter… ED WH… "The gover… <NA>      http… https://i… 2024-06-22… "The g…
 3 Eastern he… Alex … "Hot and c… <NA>      http… https://m… 2024-06-22… "June …
 4 Scorching … <NA>   "Millions … cbs-news  http… https://a… 2024-06-22… "A rel…
 5 FEMA is re… REBEC… "The head … <NA>      http… https://i… 2024-06-21… "WASHI…
 6 Climate ch… Assoc… "This mont… nbc-news  http… https://m… 2024-06-21… "Human…
 7 Trump clas… Eliza… "The judge… nbc-news  http… https://m… 2024-06-21… "The j…
 8 Little rel… Alexa… "There was… nbc-news  http… https://m… 2024-06-21… "There…
 9 The Art of… Frida… "( Tomdisp… <NA>      http… https://m… 2024-06-21… "( Tom…
10 Heat wave … Rache… "Heat wave… <NA>      http… https://u… 2024-06-20… "Heat …
# ℹ 74 more rows
# ℹ 1 more variable: source$name <chr>
…
